{
  "_name_or_path": "example/checkpoints/block_embedding/best",
  "architectures": [
    "RobertaModel"
  ],
  "attention_probs_dropout_prob": 0.1,
  "bos_token_id": 0,
  "eos_token_id": 2,
  "gradient_checkpointing": false,
  "hidden_act": "gelu",
  "hidden_dropout_prob": 0.1,
  "hidden_size": 64,
  "initializer_range": 0.02,
  "intermediate_size": 3072,
  "layer_norm_eps": 1e-12,
  "max_position_embeddings": 512,
  "model_type": "roberta",
  "num_attention_heads": 4,
  "num_hidden_layers": 2,
  "pad_token_id": 1,
  "position_embedding_type": "absolute",
  "type_vocab_size": 1,
  "vocab_size": 80000
}
